…
## Creating an Example Plot {-}

To show how this function works, let's create a plot. We'll do so using the `palmerpenguins` package, which has data on penguins living on three islands in Antarctica. To give you a sense of what this data looks like, let's load the `palmerpenguins` and `tidyverse` packages.


```r
library(palmerpenguins)
library(tidyverse)
```

We now have data that we can work with in an object called `penguins`. Here's what the first ten rows look like.


```
#> # A tibble: 344 x 8
#>    species island    bill_le~1 bill_~2 flipp~3 body_~4 sex  
#>    <fct>   <fct>         <dbl>   <dbl>   <int>   <int> <fct>
#>  1 Adelie  Torgersen      39.1    18.7     181    3750 male 
#>  2 Adelie  Torgersen      39.5    17.4     186    3800 fema~
#>  3 Adelie  Torgersen      40.3    18       195    3250 fema~
#>  4 Adelie  Torgersen      NA      NA        NA      NA <NA> 
#>  5 Adelie  Torgersen      36.7    19.3     193    3450 fema~
#>  6 Adelie  Torgersen      39.3    20.6     190    3650 male 
#>  7 Adelie  Torgersen      38.9    17.8     181    3625 fema~
#>  8 Adelie  Torgersen      39.2    19.6     195    4675 male 
#>  9 Adelie  Torgersen      34.1    18.1     193    3475 <NA> 
#> 10 Adelie  Torgersen      42      20.2     190    4250 <NA> 
#> # ... with 334 more rows, 1 more variable: year <int>, and
#> #   abbreviated variable names 1: bill_length_mm,
#> #   2: bill_depth_mm, 3: flipper_length_mm, 4: body_mass_g
```
…
