…
## Enter bbplot

TODO: Show example plot: https://ichef.bbci.co.uk/news/976/cpsprodpb/82BA/production/_121266433_beef_by_region_ws_640x3-nc.png (source: https://www.bbc.com/news/science-environment-46459714) 

### Show data

To show how `bbplot` works, let's create our own plot. We'll do so using the `palmerpenguins` package, which has data on penguins living on three islands in Antarctica. To give you a sense of what this data looks like, let's load `palmerpenguins` and the `tidyverse` packages.



We now have data that we can work with in an object called `penguins`. Here's what the first ten rows look like.


```
#> # A tibble: 344 × 8
#>    species island    bill_le…¹ bill_…² flipp…³ body_…⁴ sex  
#>    <fct>   <fct>         <dbl>   <dbl>   <int>   <int> <fct>
#>  1 Adelie  Torgersen      39.1    18.7     181    3750 male 
#>  2 Adelie  Torgersen      39.5    17.4     186    3800 fema…
#>  3 Adelie  Torgersen      40.3    18       195    3250 fema…
#>  4 Adelie  Torgersen      NA      NA        NA      NA <NA> 
#>  5 Adelie  Torgersen      36.7    19.3     193    3450 fema…
#>  6 Adelie  Torgersen      39.3    20.6     190    3650 male 
#>  7 Adelie  Torgersen      38.9    17.8     181    3625 fema…
#>  8 Adelie  Torgersen      39.2    19.6     195    4675 male 
#>  9 Adelie  Torgersen      34.1    18.1     193    3475 <NA> 
#> 10 Adelie  Torgersen      42      20.2     190    4250 <NA> 
#> # … with 334 more rows, 1 more variable: year <int>, and
#> #   abbreviated variable names ¹​bill_length_mm,
#> #   ²​bill_depth_mm, ³​flipper_length_mm, ⁴​body_mass_g
#> # ℹ Use `print(n = ...)` to see more rows, and `colnames()` to see all variable names
```
…
