…
```r
get_decennial(geography = "state", 
              variables = "P1_006N",
              year = 2020)
```

The geography argument tells `get_decennial()` to access data at the state level. In addition to the 50 states, it will return for the District of Columbia and Puerto Rico. There are many other geographies, including county, census tract, and more. The `variables` argument specifies the variable or variables we want to access. Here, `P2_002N` is the variable name for the total Asian population. We’ll discuss how to identify other variables you may want to use in the next section. Lastly, `year` specifies the year from which we want to access data. We’re using data from the 2020 Census.

Running this code returns the following:


```
#> # A tibble: 52 × 4
#>    GEOID NAME                 variable   value
#>    <chr> <chr>                <chr>      <dbl>
#>  1 42    Pennsylvania         P1_006N   510501
#>  2 06    California           P1_006N  6085947
#>  3 54    West Virginia        P1_006N    15109
#>  4 49    Utah                 P1_006N    80438
#>  5 36    New York             P1_006N  1933127
#>  6 11    District of Columbia P1_006N    33545
#>  7 02    Alaska               P1_006N    44032
#>  8 12    Florida              P1_006N   643682
#>  9 45    South Carolina       P1_006N    90466
#> 10 38    North Dakota         P1_006N    13213
#> # ℹ 42 more rows
```
…
The `tidycensus` package has a function called `load_variables()` that shows all of the variables from a Decennial Census. Run it with the `year` argument set to 2020 and `dataset` set to `pl`. This should pull data from so-called redistricting summary data files, which public law 94-171 requires the census to produce every 10 years:



```r
load_variables(year = 2020, 
               dataset = "pl")
```

Running this code returns the name, label (a description), and concept (a category) of all variables available to us:


```
#> # A tibble: 301 × 3
#>    name    label                                     concept
#>    <chr>   <chr>                                     <chr>  
#>  1 H1_001N " !!Total:"                               OCCUPA…
#>  2 H1_002N " !!Total:!!Occupied"                     OCCUPA…
#>  3 H1_003N " !!Total:!!Vacant"                       OCCUPA…
#>  4 P1_001N " !!Total:"                               RACE   
#>  5 P1_002N " !!Total:!!Population of one race:"      RACE   
#>  6 P1_003N " !!Total:!!Population of one race:!!Whi… RACE   
#>  7 P1_004N " !!Total:!!Population of one race:!!Bla… RACE   
#>  8 P1_005N " !!Total:!!Population of one race:!!Ame… RACE   
#>  9 P1_006N " !!Total:!!Population of one race:!!Asi… RACE   
#> 10 P1_007N " !!Total:!!Population of one race:!!Nat… RACE   
#> # ℹ 291 more rows
```
…
Now that we know which variables we need, we can use the `get_decennial()` function again with two variables at once:


```r
get_decennial(geography = "state", 
              variables = c("P1_001N", "P1_006N"),
              year = 2020) %>% 
  arrange(NAME)
```

We add `arrange(NAME)` after `get_decennial()` so that the results are sorted by state name, allowing us to see that we have both variables for each state:


```
#> # A tibble: 104 × 4
#>    GEOID NAME       variable    value
#>    <chr> <chr>      <chr>       <dbl>
#>  1 01    Alabama    P1_001N   5024279
#>  2 01    Alabama    P1_006N     76660
#>  3 02    Alaska     P1_001N    733391
#>  4 02    Alaska     P1_006N     44032
#>  5 04    Arizona    P1_001N   7151502
#>  6 04    Arizona    P1_006N    257430
#>  7 05    Arkansas   P1_001N   3011524
#>  8 05    Arkansas   P1_006N     51839
#>  9 06    California P1_001N  39538223
#> 10 06    California P1_006N   6085947
#> # ℹ 94 more rows
```
…
```r
get_decennial(geography = "state", 
              variables = c(total_population = "P1_001N", 
                            asian_population = "P1_006N"),
              year = 2020) %>% 
  arrange(NAME)
```

Within the `variables` argument, we give the name we want our variables to have, followed by the equal sign and the original variable name. We can rename multiple variables by putting them within the `c()` function, as I’ve done here. It should now be much easier to see which variables we’re working with:


```
#> # A tibble: 104 × 4
#>    GEOID NAME       variable            value
#>    <chr> <chr>      <chr>               <dbl>
#>  1 01    Alabama    total_population  5024279
#>  2 01    Alabama    asian_population    76660
#>  3 02    Alaska     total_population   733391
#>  4 02    Alaska     asian_population    44032
#>  5 04    Arizona    total_population  7151502
#>  6 04    Arizona    asian_population   257430
#>  7 05    Arkansas   total_population  3011524
#>  8 05    Arkansas   asian_population    51839
#>  9 06    California total_population 39538223
#> 10 06    California asian_population  6085947
#> # ℹ 94 more rows
```
…
We use `group_by(NAME)` to create one group for each state because we want to calculate the Asian population percentage in each state (not for the entire United States). We then use `mutate()` to calculate each percentage, taking the value in each row and dividing it by the `total_population` and `asian_population` rows for each state. We use `ungroup()` to remove the state-level grouping. We use `filter()` to show only the Asian population percentage.

When we run this code, we see both the Asian population and the Asian population as a percentage of the total population in each state:


```
#> # A tibble: 52 × 5
#>    GEOID NAME                 variable        value      pct
#>    <chr> <chr>                <chr>           <dbl>    <dbl>
#>  1 01    Alabama              asian_popula…   76660 0.015029
#>  2 02    Alaska               asian_popula…   44032 0.056638
#>  3 04    Arizona              asian_popula…  257430 0.034746
#>  4 05    Arkansas             asian_popula…   51839 0.016922
#>  5 06    California           asian_popula… 6085947 0.13339 
#>  6 08    Colorado             asian_popula…  199827 0.033452
#>  7 09    Connecticut          asian_popula…  172455 0.045642
#>  8 10    Delaware             asian_popula…   42699 0.041349
#>  9 11    District of Columbia asian_popula…   33545 0.046391
#> 10 12    Florida              asian_popula…  643682 0.029018
#> # ℹ 42 more rows
```
…
```r
get_decennial(geography = "state", 
              variables = c(asian_population = "P1_006N"),
              summary_var = "P1_001N",
              year = 2020) %>% 
  arrange(NAME)
```

This returns a nearly identical data frame to what we got earlier, except that the total population is now a separate variable, rather than additional rows for each state:


```
#> # A tibble: 52 × 5
#>    GEOID NAME                 variable   value summary_value
#>    <chr> <chr>                <chr>      <dbl>         <dbl>
#>  1 01    Alabama              asian_p…   76660       5024279
#>  2 02    Alaska               asian_p…   44032        733391
#>  3 04    Arizona              asian_p…  257430       7151502
#>  4 05    Arkansas             asian_p…   51839       3011524
#>  5 06    California           asian_p… 6085947      39538223
#>  6 08    Colorado             asian_p…  199827       5773714
#>  7 09    Connecticut          asian_p…  172455       3605944
#>  8 10    Delaware             asian_p…   42699        989948
#>  9 11    District of Columbia asian_p…   33545        689545
#> 10 12    Florida              asian_p…  643682      21538187
#> # ℹ 42 more rows
```
…
```r
get_decennial(geography = "state", 
              variables = c(asian_population = "P1_006N"),
              summary_var = "P1_001N",
              year = 2020) %>% 
  arrange(NAME) %>% 
  mutate(pct = value / summary_value) %>% 
  select(-summary_value)
```

The resulting output is identical to the output of the previous section:


```
#> # A tibble: 52 × 6
#>    GEOID NAME        variable   value summary_value      pct
#>    <chr> <chr>       <chr>      <dbl>         <dbl>    <dbl>
#>  1 01    Alabama     asian_p…   76660       5024279 0.015258
#>  2 02    Alaska      asian_p…   44032        733391 0.060039
#>  3 04    Arizona     asian_p…  257430       7151502 0.035997
#>  4 05    Arkansas    asian_p…   51839       3011524 0.017214
#>  5 06    California  asian_p… 6085947      39538223 0.15393 
#>  6 08    Colorado    asian_p…  199827       5773714 0.034610
#>  7 09    Connecticut asian_p…  172455       3605944 0.047825
#>  8 10    Delaware    asian_p…   42699        989948 0.043133
#>  9 11    District o… asian_p…   33545        689545 0.048648
#> 10 12    Florida     asian_p…  643682      21538187 0.029886
#> # ℹ 42 more rows
```
…
Despite these differences, we can access data from the American Community Survey in a manner nearly identical to how we access Decennial Census data. Instead of `get_decennial()`, we use the function `get_acs()`, but the arguments we pass to these functions are the same. In the following example, I’ve identified a variable I’m interested in (`B01002_001`, which shows the median age) and use it to get this data for each state:


```r
get_acs(geography = "state",
        variables = "B01002_001",
        year = 2020)
```

Here is what the output looks like:


```
#> # A tibble: 52 × 5
#>    GEOID NAME                 variable   estimate   moe
#>    <chr> <chr>                <chr>         <dbl> <dbl>
#>  1 01    Alabama              B01002_001     39.2   0.1
#>  2 02    Alaska               B01002_001     34.6   0.2
#>  3 04    Arizona              B01002_001     37.9   0.2
#>  4 05    Arkansas             B01002_001     38.3   0.2
#>  5 06    California           B01002_001     36.7   0.1
#>  6 08    Colorado             B01002_001     36.9   0.1
#>  7 09    Connecticut          B01002_001     41.1   0.2
#>  8 10    Delaware             B01002_001     41     0.2
#>  9 11    District of Columbia B01002_001     34.1   0.1
#> 10 12    Florida              B01002_001     42.2   0.2
#> # ℹ 42 more rows
```
…
