…
### Creating an Example Plot {-}

To show how this function works, let’s create a plot. We’ll do so using the `palmerpenguins` package, which contains data about penguins living on three islands in Antarctica. To give you a sense of what this data looks like, load the `palmerpenguins` and `tidyverse` packages:


```r
library(palmerpenguins)
library(tidyverse)
```

We now have data that we can work with in an object called `penguins`. Here's what the first ten rows look like.


```
#> # A tibble: 344 × 8
#>    species island    bill_length_mm bill_depth_mm
#>    <fct>   <fct>              <dbl>         <dbl>
#>  1 Adelie  Torgersen           39.1          18.7
#>  2 Adelie  Torgersen           39.5          17.4
#>  3 Adelie  Torgersen           40.3          18  
#>  4 Adelie  Torgersen           NA            NA  
#>  5 Adelie  Torgersen           36.7          19.3
#>  6 Adelie  Torgersen           39.3          20.6
#>  7 Adelie  Torgersen           38.9          17.8
#>  8 Adelie  Torgersen           39.2          19.6
#>  9 Adelie  Torgersen           34.1          18.1
#> 10 Adelie  Torgersen           42            20.2
#> # ℹ 334 more rows
#> # ℹ 4 more variables: flipper_length_mm <int>,
#> #   body_mass_g <int>, sex <fct>, year <int>
```
…
