Chapter 3 An R Programming Crash Course | R Without Statistics
…
The read.csv() function that we’ve used up to this point is one of a set of functions that come from what is known as base R. They are built into R and you simply have to type the name of the function to use it. However, one of the benefits of R being an open source language is that anyone create their own code and share it with others. R users around the world make what are called packages, which provide code to do specific things.

The best analogy for understanding packages also comes from the Modern Dive book. The functionality in base R is like when you get a new phone. It can do a lot on its own. But you usually want to install apps on your phone to do specific things. Packages are like apps, giving you specific functionality that doesn’t come built into base R.

You can install a package using the install.packages() function. For example, to install the tidyverse package, which provides a range of functions for data import, cleaning, analysis, visualization, and more, you would type install.packages("tidyverse"). I typically enter this code in the console because you only need to install a package once on your computer and so I know I don’t need to rerun this code again.

To confirm that the tidyverse package has been installed correctly, click on the packages tab on the bottom right panel. Search for tidyverse and you should see it pop up.

TODO: Add screenshot

Now that we’ve installed the tidyverse package, let’s use it. While you only need to install packages once per computer, you need to load packages each time you restart RStudio. You can only use functions from the tidyverse package if you first run the line library(tidyverse). I’ll go back to my sample-code.R file and re-import my data using a function from the tidyverse package.

At the top of my script I load the tidyverse. Then, I use the read_csv() function (note the _ in place of the .) to import my data. This alternate function to import CSV files achieves the same goal of creating an object called population_data_2. If we type population_data_2 and run the code (either by using the run button or the keyboard shortcut) you will see the output in the console.

#> # A tibble: 52 × 9
#>     rank State               Pop  Growth  Pop2018  Pop2010
#>    <dbl> <chr>             <dbl>   <dbl>    <dbl>    <dbl>
#>  1     1 California     39613493  0.0038 39461588 37319502
#>  2     2 Texas          29730311  0.0385 28628666 25241971
#>  3     3 Florida        21944577  0.033  21244317 18845537
#>  4     4 New York       19299981 -0.0118 19530351 19399878
#>  5     5 Pennsylvania   12804123  0.0003 12800922 12711160
#>  6     6 Illinois       12569321 -0.0121 12723071 12840503
#>  7     7 Ohio           11714618  0.0033 11676341 11539336
#>  8     8 Georgia        10830007  0.0303 10511131  9711881
#>  9     9 North Carolina 10701022  0.0308 10381615  9574323
#> 10    10 Michigan        9992427  0.0008  9984072  9877510
#> # ℹ 42 more rows
#> # ℹ 3 more variables: growthSince2010 <dbl>, Percent <dbl>,
#> #   density <dbl>
…
