Chapter 2 Principles of Data Visualization | R Without Statistics
…
dm_perc_cat_hubs_raw <- import("https://data.rwithoutstatistics.com/dm_export_20000101_20210909_perc_cat_hubs.json")

This function is helpful because the data they are working with is in JSON format, which can be complicated to work with. The rio package simplifies it into just one line.

Plotting One Region and Year

Let’s start by looking at just one region (the Southwest) in one year (2003). First, we filter our data and save it as a new object called southwest_2003:

southwest_2003 <- dm_perc_cat_hubs %>%
  filter(hub == "Southwest") %>%
  filter(year == 2003)

We can take a look at this object to see the variables we have to work with by typing southwest_2003 in the console, which will return this:

#> # A tibble: 255 × 7
#>    date       hub   category percentage  year  week max_week
#>    <date>     <fct> <fct>         <dbl> <dbl> <dbl>    <dbl>
#>  1 2003-12-30 Sout… D0           0.0718  2003    52       52
#>  2 2003-12-30 Sout… D1           0.0828  2003    52       52
#>  3 2003-12-30 Sout… D2           0.2693  2003    52       52
#>  4 2003-12-30 Sout… D3           0.3108  2003    52       52
#>  5 2003-12-30 Sout… D4           0.0796  2003    52       52
#>  6 2003-12-23 Sout… D0           0.0823  2003    51       52
#>  7 2003-12-23 Sout… D1           0.1312  2003    51       52
#>  8 2003-12-23 Sout… D2           0.1886  2003    51       52
#>  9 2003-12-23 Sout… D3           0.3822  2003    51       52
#> 10 2003-12-23 Sout… D4           0.0828  2003    51       52
#> # ℹ 245 more rows
…
