…
}
```

As we saw in Chapter \@ref(tidycensus-chapter), the `get_acs()` function has many arguments. I don't want to repeat them all as arguments in my `get_acs_race_ethnicity()` function. The `...` allows us to avoid doing so. By putting `...` in the `get_acs_race_ethnicity()` function, any arguments listed there are then passed to the `get_acs()` function (note the `...` there as well). I can then run this code to set the `geography` to state. 


```r
get_acs_race_ethnicity(geography = "state")
```

Which would return the following:


```
#> # A tibble: 416 × 5
#>    GEOID NAME    variable                      estim…¹   moe
#>    <chr> <chr>   <chr>                           <dbl> <dbl>
#>  1 01    Alabama White                         3192147  1410
#>  2 01    Alabama Black/African American        1292950  2796
#>  3 01    Alabama American Indian/Alaska Native   21297  1050
#>  4 01    Alabama Asian                           67317  1384
#>  5 01    Alabama Native Hawaiian/Pacific Isla…    1887   317
#>  6 01    Alabama Other race                       9779  1312
#>  7 01    Alabama Multi-Race                      94858  3378
#>  8 01    Alabama Hispanic/Latino                212951   536
#>  9 02    Alaska  White                          439979   831
#> 10 02    Alaska  Black/African American          22720   999
#> # … with 406 more rows, and abbreviated variable name
#> #   ¹​estimate
```
…
