…
Now that you’ve installed `tidyverse`, let’s use it. While you need to install packages only once per computer, you need to *load* packages each time you restart RStudio by running `library(tidyverse)`. Return to the *sample-code.R* file and re-import your data using a function from the tidyverse package:


```r
library(tidyverse)

population_data_2 <- read_csv(file = "/Users/davidkeyes/Documents/population-by-state.csv")
```

At the top of the script, load the `tidyverse`. Then, use the package’s `read_csv()` function to import the data. Note the underscore (`_`) in place of the period (`.`) in the function’s name; this is a different function from one we used earlier. Using this alternate function to import CSV files achieves the same goal of creating an object, in this case one called `population_data_2`. If you enter `population_data_2` in the console, you should see this output:


```
#> # A tibble: 52 x 9
#>     rank State               Pop  Growth  Pop2018  Pop2010
#>    <dbl> <chr>             <dbl>   <dbl>    <dbl>    <dbl>
#>  1     1 California     39613493  0.0038 39461588 37319502
#>  2     2 Texas          29730311  0.0385 28628666 25241971
#>  3     3 Florida        21944577  0.033  21244317 18845537
#>  4     4 New York       19299981 -0.0118 19530351 19399878
#>  5     5 Pennsylvania   12804123  0.0003 12800922 12711160
#>  6     6 Illinois       12569321 -0.0121 12723071 12840503
#>  7     7 Ohio           11714618  0.0033 11676341 11539336
#>  8     8 Georgia        10830007  0.0303 10511131  9711881
#>  9     9 North Carolina 10701022  0.0308 10381615  9574323
#> 10    10 Michigan        9992427  0.0008  9984072  9877510
#> # i 42 more rows
#> # i 3 more variables: growthSince2010 <dbl>, Percent <dbl>,
#> #   density <dbl>
```
…
