In Conclusion: R is a Map-Making Swiss Army Knife | R Without Statistics
…
With that said, there are two ways to access geospatial data. The first is to import raw data. Geospatial data can take a number of different formats. While ESRL shapefiles (with the .shp extension) are the most common, there is also GeoJSON (.geojson), KML (.kml), and others (chapter 8 of Geocomputation with R by Robin Lovelace, Jakub Nowosad, and Jannes Muenchow discusses the range of formats). The good news for us is that there is a single function that can read in pretty much any type of geospatial data. That function is read_sf() from the sf package. Let’s show an example of how it works.

I downloaded geospatial data from the website geojson.xyz on United States state boundaries in GeoJSON format, saving it in the data folder as states.geojson. I can then import this data using the read_sf() function. I use the dsn argument (dsn stands for data source name) to tell read_sf() where to find the file. I then save this as the object us_states.

us_states <- read_sf(dsn = "data/states.geojson")

Let’s now take at us_states. The data has 41 variables so, to keep things legible, let’s just keep a couple: name (of the state) and geometry. I can show these two by selecting only name because, when working with simple features data, the geometry column is unaffected by operations to all other variables. We can see all of the metadata we discussed above (geometry type, dimensions, bounding box, and coordinate reference system) as well as the data itself.

#> Simple feature collection with 51 features and 1 field
#> Geometry type: MULTIPOLYGON
#> Dimension:     XY
#> Bounding box:  xmin: -171.7911 ymin: 18.91619 xmax: -66.96466 ymax: 71.35776
#> Geodetic CRS:  WGS 84
#> # A tibble: 51 × 2
#>    name                                             geometry
#>    <chr>                                  <MULTIPOLYGON [°]>
#>  1 Minnesota    (((-89.59941 48.01027, -89.48888 48.01344, …
#>  2 Montana      (((-111.1942 44.56116, -111.2915 44.70141, …
#>  3 North Dakota (((-96.60136 46.35136, -96.53891 46.19948, …
#>  4 Hawaii       (((-155.9366 19.05939, -155.9081 19.33888, …
#>  5 Idaho        (((-111.0497 44.48816, -111.0502 42.0016, -…
#>  6 Washington   (((-116.9981 46.33017, -116.9065 46.17778, …
#>  7 Arizona      (((-109.0452 36.99991, -109.0437 31.3419, -…
#>  8 California   (((-114.3549 34.46467, -114.166 34.27259, -…
#>  9 Colorado     (((-102.0502 40.00081, -102.0401 38.45987, …
#> 10 Nevada       (((-114.0305 36.9941, -114.0236 36.18976, -…
#> # … with 41 more rows
…
