Chapter 4 Creating Maps | R Without Statistics
…
Figure 4.6: A map of all major roads in Wyoming

Lastly, we could use MULTIPOLYGON data to, for example, depict a state made up of multiple polygons. To see what I mean, take a look at a map of Wyoming’s counties. We can import data to make this map with the following code:

If we look at the data, we can see how it represents the 23 counties in the state:

#> Simple feature collection with 23 features and 1 field
#> Geometry type: MULTIPOLYGON
#> Dimension:     XY
#> Bounding box:  xmin: -111.0546 ymin: 40.99477 xmax: -104.0522 ymax: 45.00582
#> Geodetic CRS:  WGS 84
#> # A tibble: 23 × 2
#>    NAME                                             geometry
#>    <chr>                                  <MULTIPOLYGON [°]>
#>  1 Lincoln     (((-110.54 42.287, -110.54 42.286, -110.54 4…
#>  2 Fremont     (((-109.33 42.869, -109.33 42.869, -109.33 4…
#>  3 Uinta       (((-110.58 41.579, -110.58 41.579, -110.58 4…
#>  4 Big Horn    (((-107.5 44.64, -107.5 44.64, -107.5 44.641…
#>  5 Hot Springs (((-108.16 43.471, -108.16 43.46, -108.16 43…
#>  6 Washakie    (((-107.68 44.166, -107.68 44.166, -107.68 4…
#>  7 Converse    (((-105.92 43.495, -105.92 43.495, -105.91 4…
#>  8 Sweetwater  (((-109.57 40.998, -109.57 40.998, -109.57 4…
#>  9 Crook       (((-104.46 44.181, -104.46 44.181, -104.46 4…
#> 10 Carbon      (((-106.32 41.383, -106.32 41.382, -106.32 4…
#> # ℹ 13 more rows
…
You can install all of the other packages using the standard install.packages() code. We’ll use tidyverse to import data, manipulate it, and plot it with ggplot. The sf package will enable us to change the coordinate reference system and use an appropriate projection for the data. The zoo package has functions for calculating rolling averages, and the colorspace package gives us a color scale that highlights the data well.

Importing the Data

Next, let’s import the data we need. We require three pieces of data: COVID rates by state over time, state populations, and geospatial information. Madjid imported each of these pieces of data separately and then merged them, and we’ll do the same.

First, we import COVID data. This data comes directly from The New York Times, which publishes daily case rates by state as a CSV file on its GitHub account. I’ve dropped the fips variable; Federal Information Processing Standards (FIPS) are numeric codes used to represent states, but we can reference states by their names instead:

covid_data <- read_csv("https://data.rwithoutstatistics.com/covid-us-states.csv") %>%
  select(-fips)

If you take a look at this data, you can see the arrival of the first COVID cases in the United States in January 2020.

#> # A tibble: 61,102 × 4
#>    date       state      cases deaths
#>    <date>     <chr>      <dbl>  <dbl>
#>  1 2020-01-21 Washington     1      0
#>  2 2020-01-22 Washington     1      0
#>  3 2020-01-23 Washington     1      0
#>  4 2020-01-24 Illinois       1      0
#>  5 2020-01-24 Washington     1      0
#>  6 2020-01-25 California     1      0
#>  7 2020-01-25 Illinois       1      0
#>  8 2020-01-25 Washington     1      0
#>  9 2020-01-26 Arizona        1      0
#> 10 2020-01-26 California     2      0
#> # ℹ 61,092 more rows

Madjid’s map shows per capita rates (rates per 100,000 people) rather than absolute rates (the rates without consideration for a state’s population). So, to recreate his maps, we need to obtain data on each state’s population. Madjid downloaded this data as a CSV:

usa_states <- read_csv("https://data.rwithoutstatistics.com/population-by-state.csv") %>%
  select(State, Pop)

We import this data, keep the State and Pop (population) variables, and save it as an object called usa_states. Let’s see what usa_states looks like:

#> # A tibble: 52 × 2
#>    State               Pop
#>    <chr>             <dbl>
#>  1 California     39613493
#>  2 Texas          29730311
#>  3 Florida        21944577
#>  4 New York       19299981
#>  5 Pennsylvania   12804123
#>  6 Illinois       12569321
#>  7 Ohio           11714618
#>  8 Georgia        10830007
#>  9 North Carolina 10701022
#> 10 Michigan        9992427
#> # ℹ 42 more rows
…
We use the group_by() function to calculate totals for each state, then create a new variable called pd_cases, which represents the number of cases in the previous day (we can use the lag() function to assign data to this variable). Some days do not have cases counts for the previous day, so in these cases, we set the value to 0 using the replace_na() function.

Finally, we create a new variable called daily_cases. To set the value of this variable, we use the case_when() function to create a condition: If the cases variable (which holds the cases on that day) is greater than the pd_cases variable (which holds cases from one day prior), then daily_cases is equal to cases minus pd_cases. Otherwise, we set daily_cases to be equal to 0.

Because we grouped the data by state at the beginning, we must now remove this grouping using the ungroup() function before arranging our data by state and date. Now take a look at the covid_cases data frame we created:

#> # A tibble: 61,102 × 6
#>    date       state   cases deaths pd_cases daily_cases
#>    <date>     <chr>   <dbl>  <dbl>    <dbl>       <dbl>
#>  1 2020-03-13 Alabama     6      0        0           6
#>  2 2020-03-14 Alabama    12      0        6           6
#>  3 2020-03-15 Alabama    23      0       12          11
#>  4 2020-03-16 Alabama    29      0       23           6
#>  5 2020-03-17 Alabama    39      0       29          10
#>  6 2020-03-18 Alabama    51      0       39          12
#>  7 2020-03-19 Alabama    78      0       51          27
#>  8 2020-03-20 Alabama   106      0       78          28
#>  9 2020-03-21 Alabama   131      0      106          25
#> 10 2020-03-22 Alabama   157      0      131          26
#> # ℹ 61,092 more rows
…
Rather than keeping raw values (for example, on June 29, 2021, Florida had a rate of 57.77737 cases per 100,000 people), we use the cut() function to convert the values into categories: values of >0 (greater than zero), values of >5 (greater than five), and values of >50 (greater than 50).

The last step is to filter the data so it includes only 2021 data (the only year depicted in Madjid’s map) and select only the variables (state, date, and incidence_rate) we’ll need to create our map. Here is the final covid_cases_rm data frame.

#> # A tibble: 18,980 × 3
#>    state   date       incidence_rate
#>    <chr>   <date>     <fct>         
#>  1 Alabama 2021-01-01 >50           
#>  2 Alabama 2021-01-02 >50           
#>  3 Alabama 2021-01-03 >50           
#>  4 Alabama 2021-01-04 >50           
#>  5 Alabama 2021-01-05 >50           
#>  6 Alabama 2021-01-06 >50           
#>  7 Alabama 2021-01-07 >50           
#>  8 Alabama 2021-01-08 >50           
#>  9 Alabama 2021-01-09 >50           
#> 10 Alabama 2021-01-10 >50           
#> # ℹ 18,970 more rows
…
