…
Within the function’s body, we call the `get_acs()` function from `tidycensus` to retrieve population data at the state level. But instead of returning the function’s default output, we relabel the hard-to-remember variable names to human-readable names, such as White and Black/African American. Next, we save these names as an object called `race_ethnicity_data`. Lastly, we use this object to return that data when the function is run.

We can run this function by entering the following:


```r
get_acs_race_ethnicity()
```

Doing so should return data with easy-to-read race and ethnicity group names:


```
#> # A tibble: 416 x 5
#>    GEOID NAME    variable                     estimate   moe
#>    <chr> <chr>   <chr>                           <dbl> <dbl>
#>  1 01    Alabama White                         3241003  2076
#>  2 01    Alabama Black/African American        1316314  3018
#>  3 01    Alabama American Indian/Alaska Nati~    17417   941
#>  4 01    Alabama Asian                           69331  1559
#>  5 01    Alabama Native Hawaiian/Pacific Isl~     1594   376
#>  6 01    Alabama Other race                      12504  1867
#>  7 01    Alabama Multi-Race                     114853  3835
#>  8 01    Alabama Hispanic/Latino                224659   413
#>  9 02    Alaska  White                          434515  1067
#> 10 02    Alaska  Black/African American          22787   769
#> # i 406 more rows
```
…
We add the `clean_variable_names` argument to the function and specify that it should be `FALSE` by default. Then, in the function body, we set up an `if` statement. If the argument is `TRUE`, we run a line that overwrites the variable names with versions formatted in snake case. If the argument is `FALSE`, we leave the variable names unchanged.

If you run the function, nothing should change, because our new argument is set to `FALSE` by default. Try setting `clean_variable_names` to `TRUE` as follows:


```r
get_acs_race_ethnicity(clean_variable_names = TRUE)
```

This function call should return data with consistent variable names:


```
#> # A tibble: 416 x 5
#>    geoid name    variable                     estimate   moe
#>    <chr> <chr>   <chr>                           <dbl> <dbl>
#>  1 01    Alabama White                         3241003  2076
#>  2 01    Alabama Black/African American        1316314  3018
#>  3 01    Alabama American Indian/Alaska Nati~    17417   941
#>  4 01    Alabama Asian                           69331  1559
#>  5 01    Alabama Native Hawaiian/Pacific Isl~     1594   376
#>  6 01    Alabama Other race                      12504  1867
#>  7 01    Alabama Multi-Race                     114853  3835
#>  8 01    Alabama Hispanic/Latino                224659   413
#>  9 02    Alaska  White                          434515  1067
#> 10 02    Alaska  Black/African American          22787   769
#> # i 406 more rows
```
…
}
```

Try running this function by passing it the `geography` argument set to `"state"`:


```r
get_acs_race_ethnicity(geography = "state")
```

This should return the following:


```
#> # A tibble: 416 x 5
#>    GEOID NAME    variable                     estimate   moe
#>    <chr> <chr>   <chr>                           <dbl> <dbl>
#>  1 01    Alabama White                         3241003  2076
#>  2 01    Alabama Black/African American        1316314  3018
#>  3 01    Alabama American Indian/Alaska Nati~    17417   941
#>  4 01    Alabama Asian                           69331  1559
#>  5 01    Alabama Native Hawaiian/Pacific Isl~     1594   376
#>  6 01    Alabama Other race                      12504  1867
#>  7 01    Alabama Multi-Race                     114853  3835
#>  8 01    Alabama Hispanic/Latino                224659   413
#>  9 02    Alaska  White                          434515  1067
#> 10 02    Alaska  Black/African American          22787   769
#> # i 406 more rows
```
…
