Chapter 12 Creating Your Own R Packages | R Without Statistics
…
  race_ethnicity_data
}

Within the function’s body, we call the get_acs() function from tidycensus to retrieve population data at the state level. But instead of returning the function’s default output, we relabel the hard-to-remember variable names to human-readable names, such as White and Black/African American. Next, we save these names as an object called race_ethnicity_data. Lastly, we use this object to return that data when the function is run.

We can run this function by entering the following:

get_acs_race_ethnicity()

Doing so should return data with easy-to-read race and ethnicity group names:

#> # A tibble: 416 × 5
#>    GEOID NAME    variable                     estimate   moe
#>    <chr> <chr>   <chr>                           <dbl> <dbl>
#>  1 01    Alabama White                         3247262  2133
#>  2 01    Alabama Black/African American        1318388  3585
#>  3 01    Alabama American Indian/Alaska Nati…    14864   868
#>  4 01    Alabama Asian                           69099  1113
#>  5 01    Alabama Native Hawaiian/Pacific Isl…     1557   303
#>  6 01    Alabama Other race                      14724  1851
#>  7 01    Alabama Multi-Race                     129791  3724
#>  8 01    Alabama Hispanic/Latino                232407   199
#>  9 02    Alaska  White                          428802  1173
#> 10 02    Alaska  Black/African American          22400   935
#> # ℹ 406 more rows
…
  race_ethnicity_data
}

We add the clean_variable_names argument to the function and specify that it should be FALSE by default. Then, in the function body, we set up an if statement. If the argument is TRUE, we run a line that overwrites the variable names with versions formatted in snake case. If the argument is FALSE, we leave the variable names unchanged.

If you run the function, nothing should change, because our new argument is set to FALSE by default. Try setting clean_variable_names to TRUE as follows:

get_acs_race_ethnicity(clean_variable_names = TRUE)

This function call should return data with consistent variable names:

#> # A tibble: 416 × 5
#>    geoid name    variable                     estimate   moe
#>    <chr> <chr>   <chr>                           <dbl> <dbl>
#>  1 01    Alabama White                         3247262  2133
#>  2 01    Alabama Black/African American        1318388  3585
#>  3 01    Alabama American Indian/Alaska Nati…    14864   868
#>  4 01    Alabama Asian                           69099  1113
#>  5 01    Alabama Native Hawaiian/Pacific Isl…     1557   303
#>  6 01    Alabama Other race                      14724  1851
#>  7 01    Alabama Multi-Race                     129791  3724
#>  8 01    Alabama Hispanic/Latino                232407   199
#>  9 02    Alaska  White                          428802  1173
#> 10 02    Alaska  Black/African American          22400   935
#> # ℹ 406 more rows
…
  if (clean_variable_names == TRUE) {
    race_ethnicity_data <- clean_names(race_ethnicity_data)
  }

  race_ethnicity_data
}

Try running this function by passing it the geography argument set to "state":

get_acs_race_ethnicity(geography = "state")

This should return the following:

#> # A tibble: 416 × 5
#>    GEOID NAME    variable                     estimate   moe
#>    <chr> <chr>   <chr>                           <dbl> <dbl>
#>  1 01    Alabama White                         3247262  2133
#>  2 01    Alabama Black/African American        1318388  3585
#>  3 01    Alabama American Indian/Alaska Nati…    14864   868
#>  4 01    Alabama Asian                           69099  1113
#>  5 01    Alabama Native Hawaiian/Pacific Isl…     1557   303
#>  6 01    Alabama Other race                      14724  1851
#>  7 01    Alabama Multi-Race                     129791  3724
#>  8 01    Alabama Hispanic/Latino                232407   199
#>  9 02    Alaska  White                          428802  1173
#> 10 02    Alaska  Black/African American          22400   935
#> # ℹ 406 more rows
…
