Chapter 7 Using Parameters to Automate Reports | R Without Statistics
…
The text and charts in the report come from the cases data frame, shown here:

#> # A tibble: 51 × 4
#>    total_cases state.name  cases_per_100000 case_rank
#>    <chr>       <chr>                  <dbl>     <int>
#>  1 1302945     Alabama                26573        18
#>  2 246345      Alaska                 33675         2
#>  3 2025435     Arizona                27827        10
#>  4 837154      Arkansas               27740        12
#>  5 9274208     California             23472        36
#>  6 1388702     Colorado               24115        34
#>  7 766172      Connecticut            21490        43
#>  8 264376      Delaware               27150        13
#>  9 5965411     Florida                27775        11
#> 10 2521664     Georgia                23750        35
#> # ℹ 41 more rows
…
We filter the cases data frame (which contains data for all states) to keep just the data for the state in params$state. We then use the pull() function to get a single value from that data, and format it with the comma() function from the scales package to make state_cases_per_100000 show up as 26,573 (rather than 26573) before putting these variables into the inline R code.

Creating Visualizations Based on Parameters

We can see the parameter used in other places as well, such as to highlight a state in the report’s bar chart. To see how we accomplish this, take a look at the following section from the last code chunk:

cases %>%
  mutate(highlight_state = if_else(state.name == params$state, "Y", "N"))

This code creates a variable called highlight_state. Within the cases data frame, we check whether state.name is equal to params$state. If it is, highlight_state gets the value Y. If not, it gets N. Here is what the relevant columns in the data look like after we run these two lines:

#> # A tibble: 51 × 2
#>    state.name  highlight_state
#>    <chr>       <chr>          
#>  1 Alabama     Y              
#>  2 Alaska      N              
#>  3 Arizona     N              
#>  4 Arkansas    N              
#>  5 California  N              
#>  6 Colorado    N              
#>  7 Connecticut N              
#>  8 Delaware    N              
#>  9 Florida     N              
#> 10 Georgia     N              
#> # ℹ 41 more rows
…
Rather than use render() with the input and output_file arguments, as we did earlier, we can pass it the params argument to give it parameters to use when knitting. Let’s create a tibble with the information needed to render all 51 reports and save it as an object called reports, which we’ll pass to the render() function:

reports <- tibble(
  input = "urban-covid-budget-report.Rmd",
  output_file = str_glue("{state}.html"),
  params = map(state, ~ list(state = .))
)

This code generates a tibble with 51 rows and three variables. In all rows, we set the input variable to the name of the R Markdown document. We set the value of output_file with str_glue() to be equal to the name of the state, followed by .html (for example, Alabama.html).

The params variable is the most complicated of the three. It is what’s known as a named list. This data structure puts the data in the state: state_name format needed for the R Markdown document’s YAML. We use the map() function from the purrr package to create the named list, telling R to set the value of each row as state = "Alabama", then state =  "Alaska", and so on, for all states. If you look at the reports tibble, you can see these variables:

#> # A tibble: 51 × 3
#>    input                         output_file    params      
#>    <chr>                         <glue>         <list>      
#>  1 urban-covid-budget-report.Rmd Alabama.html   <named list>
#>  2 urban-covid-budget-report.Rmd Alaska.html    <named list>
#>  3 urban-covid-budget-report.Rmd Arizona.html   <named list>
#>  4 urban-covid-budget-report.Rmd Arkansas.html  <named list>
#>  5 urban-covid-budget-report.Rmd California.ht… <named list>
#>  6 urban-covid-budget-report.Rmd Colorado.html  <named list>
#>  7 urban-covid-budget-report.Rmd Connecticut.h… <named list>
#>  8 urban-covid-budget-report.Rmd Delaware.html  <named list>
#>  9 urban-covid-budget-report.Rmd Florida.html   <named list>
#> 10 urban-covid-budget-report.Rmd Georgia.html   <named list>
#> # ℹ 41 more rows
…
