The Briefest of Primers on Geospatial Data | R Without Statistics
…
State populations

Geospatial data to make our map of the United States

Madjid imported each of these pieces of data separately and then merged them, and we’ll do the same.

First, we import COVID data. This data comes directly from the New York Times, which publishes daily case rates by state as a CSV file on their GitHub account. I’ve dropped the fips variable (FIPS, which stands for Federal Information Processing Standards, are numeric codes used to represent states) because we can just use the state name instead.

covid_data <- read_csv("https://raw.githubusercontent.com/nytimes/covid-19-data/master/us-states.csv") %>%
  select(-fips)

If we take a look at this data we can see the arrival of the first COVID cases in the United States in January 2020.

#> # A tibble: 56,006 × 4
#>    date       state      cases deaths
#>    <date>     <chr>      <dbl>  <dbl>
#>  1 2020-01-21 Washington     1      0
#>  2 2020-01-22 Washington     1      0
#>  3 2020-01-23 Washington     1      0
#>  4 2020-01-24 Illinois       1      0
#>  5 2020-01-24 Washington     1      0
#>  6 2020-01-25 California     1      0
#>  7 2020-01-25 Illinois       1      0
#>  8 2020-01-25 Washington     1      0
#>  9 2020-01-26 Arizona        1      0
#> 10 2020-01-26 California     2      0
#> # … with 55,996 more rows

The map that Abdoul Madjid made shows not absolute rates, but per capita rates. So, to recreate his maps, we need to have data on population by state. Madjid downloaded this data as a CSV. The code below imports this data, keeps the State and Pop (population) variables, and saves it as an object called usa_states.

usa_states <- read_csv("data/population-by-state.csv") %>%
  select(State, Pop)

Let’s see what usa_states looks like.

#> # A tibble: 52 × 2
#>    State               Pop
#>    <chr>             <dbl>
#>  1 California     39613493
#>  2 Texas          29730311
#>  3 Florida        21944577
#>  4 New York       19299981
#>  5 Pennsylvania   12804123
#>  6 Illinois       12569321
#>  7 Ohio           11714618
#>  8 Georgia        10830007
#>  9 North Carolina 10701022
#> 10 Michigan        9992427
#> # … with 42 more rows
…
We can now take a look at the covid_cases data frame we created. The variable we care about for the next step is daily_cases.

#> # A tibble: 56,006 × 6
#>    date       state   cases deaths pd_cases daily_cases
#>    <date>     <chr>   <dbl>  <dbl>    <dbl>       <dbl>
#>  1 2020-03-13 Alabama     6      0        0           6
#>  2 2020-03-14 Alabama    12      0        6           6
#>  3 2020-03-15 Alabama    23      0       12          11
#>  4 2020-03-16 Alabama    29      0       23           6
#>  5 2020-03-17 Alabama    39      0       29          10
#>  6 2020-03-18 Alabama    51      0       39          12
#>  7 2020-03-19 Alabama    78      0       51          27
#>  8 2020-03-20 Alabama   106      0       78          28
#>  9 2020-03-21 Alabama   131      0      106          25
#> 10 2020-03-22 Alabama   157      0      131          26
#> # … with 55,996 more rows
…
Next, Madjid created a per capita case rate variable called incidence_rate by multiplying the roll_cases variable by 100,000 and then dividing it by the population of each state. Rather than keeping raw values (for example, the Florida on June 29, 2021 had a rate of 57.77737 cases per 100,000 people), Madjid used the cut() function to convert the values into categories. His code in this section makes values of “>0” (greater than 0), “>5”, and so on up to a maximum value of “>50”.

mutate(incidence_rate = 10^5 * roll_cases / Pop) %>%
  mutate(incidence_rate = cut(incidence_rate,
                              breaks = c(seq(0, 50, 5), Inf),
                              include.lowest = TRUE) %>%
           factor(labels = paste0(">", seq(0, 50, 5))))

The last step is to filter to only include 2021 data because Madjid’s map only shows that year and select only the variables (state, date, and incidence_rate) we’ll need to create our map. The full code to create the covid_cases_rm data frame is below.

Let’s now take a look at the covid_cases_rm data frame.

#> # A tibble: 18,980 × 3
#>    state   date       incidence_rate
#>    <chr>   <date>     <fct>         
#>  1 Alabama 2021-01-01 >50           
#>  2 Alabama 2021-01-02 >50           
#>  3 Alabama 2021-01-03 >50           
#>  4 Alabama 2021-01-04 >50           
#>  5 Alabama 2021-01-05 >50           
#>  6 Alabama 2021-01-06 >50           
#>  7 Alabama 2021-01-07 >50           
#>  8 Alabama 2021-01-08 >50           
#>  9 Alabama 2021-01-09 >50           
#> 10 Alabama 2021-01-10 >50           
#> # … with 18,970 more rows
…
With that said, there are two ways to access geospatial data. The first is to import raw data. Geospatial data can take a number of different formats. While ESRL shapefiles (with the .shp extension) are the most common, there is also GeoJSON (.geojson), KML (.kml), and others (chapter 8 of Geocomputation with R by Robin Lovelace, Jakub Nowosad, and Jannes Muenchow discusses the range of formats). The good news for us is that there is a single function that can read in pretty much any type of geospatial data. That function is read_sf() from the sf package. Let’s show an example of how it works.

I downloaded geospatial data from the website geojson.xyz on United States state boundaries in GeoJSON format, saving it in the data folder as states.geojson. I can then import this data using the read_sf() function. I use the dsn argument (dsn stands for data source name) to tell read_sf() where to find the file. I then save this as the object us_states.

us_states <- read_sf(dsn = "data/states.geojson")

Let’s now take at us_states. The data has 41 variables so, to keep things legible, let’s just keep a couple: name (of the state) and geometry. I can show these two by selecting only name because, when working with simple features data, the geometry column is unaffected by operations to all other variables. We can see all of the metadata we discussed above (geometry type, dimensions, bounding box, and coordinate reference system) as well as the data itself.

#> Simple feature collection with 51 features and 1 field
#> Geometry type: MULTIPOLYGON
#> Dimension:     XY
#> Bounding box:  xmin: -171.7911 ymin: 18.91619 xmax: -66.96466 ymax: 71.35776
#> Geodetic CRS:  WGS 84
#> # A tibble: 51 × 2
#>    name                                             geometry
#>    <chr>                                  <MULTIPOLYGON [°]>
#>  1 Minnesota    (((-89.59941 48.01027, -89.48888 48.01344, …
#>  2 Montana      (((-111.1942 44.56116, -111.2915 44.70141, …
#>  3 North Dakota (((-96.60136 46.35136, -96.53891 46.19948, …
#>  4 Hawaii       (((-155.9366 19.05939, -155.9081 19.33888, …
#>  5 Idaho        (((-111.0497 44.48816, -111.0502 42.0016, -…
#>  6 Washington   (((-116.9981 46.33017, -116.9065 46.17778, …
#>  7 Arizona      (((-109.0452 36.99991, -109.0437 31.3419, -…
#>  8 California   (((-114.3549 34.46467, -114.166 34.27259, -…
#>  9 Colorado     (((-102.0502 40.00081, -102.0401 38.45987, …
#> 10 Nevada       (((-114.0305 36.9941, -114.0236 36.18976, -…
#> # … with 41 more rows
…
